<Qucs Schematic 0.0.17>
<Properties>
  <View=60,-197,1180,954,1,0,0>
  <Grid=10,10,1>
  <DataSet=onehundredkhomdivider.dat>
  <DataDisplay=onehundredkhomdivider.dpl>
  <OpenDisplay=1>
  <Script=onehundredkhomdivider.m>
  <RunScript=0>
  <showFrame=0>
  <FrameText0=Title>
  <FrameText1=Drawn By:>
  <FrameText2=Date:>
  <FrameText3=Revision:>
</Properties>
<Symbol>
</Symbol>
<Components>
  <Vdc V1 1 240 240 18 -26 0 1 "10 V" 1>
  <_BJT Q2N3904_1 1 620 140 8 -26 0 0 "npn" 0 "1.4e-14" 0 "1" 0 "1" 0 "0.025" 0 "0" 0 "100" 0 "0" 0 "3e-13" 0 "1.5" 0 "0" 0 "2" 0 "300" 0 "7.5" 0 "0" 0 "0" 0 "2.4" 0 "0" 0 "0" 0 "4.5e-12" 0 "0.75" 0 "0.33" 0 "3.5e-12" 0 "0.75" 0 "0.33" 0 "1" 0 "0" 0 "0.75" 0 "0" 0 "0.5" 0 "4e-10" 0 "0" 0 "0" 0 "0" 0 "2.1e-08" 0 "26.85" 0 "9e-16" 0 "1" 0 "1" 0 "0" 0 "1" 0 "1" 0 "0" 0 "1.5" 0 "3" 0 "1.11" 0 "26.85" 0 "1" 0>
  <GND * 1 440 400 0 0 0 0>
  <Vdc V2 1 810 -50 18 -26 0 1 "5V" 1>
  <R R3 1 680 -80 -26 15 0 0 "10 kOhm" 1 "26.85" 0 "0.0" 0 "0.0" 0 "26.85" 0 "US" 0>
  <.DC DC1 1 110 -120 0 39 0 0 "26.85" 0 "0.001" 0 "1 pA" 0 "1 uV" 0 "no" 0 "150" 0 "no" 0 "none" 0 "CroutLU" 0>
  <.SW SW2 1 930 -100 0 63 0 0 "DC1" 1 "lin" 1 "RLOW" 1 "1 " 1 "360" 1 "360" 1>
  <potentiometer POT1 1 370 190 -52 -32 1 1 "100e3" 0 "{RLOW}" 0 "0" 0 "1" 0 "360.0" 0 "0.2" 0 "0.2" 0 "1" 0 "100" 0 "26.85" 0 "26.85" 0>
</Components>
<Wires>
  <240 140 240 210 "" 0 0 0 "">
  <240 140 310 140 "" 0 0 0 "">
  <240 330 440 330 "" 0 0 0 "">
  <240 270 240 330 "" 0 0 0 "">
  <440 330 440 400 "" 0 0 0 "">
  <620 170 620 330 "" 0 0 0 "">
  <440 330 620 330 "" 0 0 0 "">
  <710 -80 810 -80 "" 0 0 0 "">
  <620 -80 650 -80 "" 0 0 0 "">
  <620 -80 620 110 "" 0 0 0 "">
  <810 -20 810 330 "" 0 0 0 "">
  <620 330 810 330 "" 0 0 0 "">
  <440 270 440 330 "" 0 0 0 "">
  <310 140 310 150 "" 0 0 0 "">
  <310 150 370 150 "" 0 0 0 "">
  <390 140 590 140 "output_voltage" 460 110 34 "">
  <390 140 390 190 "" 0 0 0 "">
  <370 270 440 270 "" 0 0 0 "">
  <370 230 370 270 "" 0 0 0 "">
  <620 110 620 110 "measurement_port" 650 80 0 "">
</Wires>
<Diagrams>
</Diagrams>
<Paintings>
</Paintings>
